{
  "indexes": [
    {
      "collectionGroup": "provider-announcements",
      "queryScope": "COLLECTION",
      "fields": [
        {
          "fieldPath": "deleted",
          "order": "ASCENDING"
        },
        {
          "fieldPath": "location",
          "order": "ASCENDING"
        },
        {
          "fieldPath": "eventDate",
          "order": "ASCENDING"
        }
      ]
    },
    {
      "collectionGroup": "provider-announcements",
      "queryScope": "COLLECTION",
      "fields": [
        {
          "fieldPath": "deleted",
          "order": "ASCENDING"
        },
        {
          "fieldPath": "location",
          "order": "ASCENDING"
        },
        {
          "fieldPath": "updatedAt",
          "order": "ASCENDING"
        }
      ]
    },
    {
      "collectionGroup": "provider-bulletins",
      "queryScope": "COLLECTION",
      "fields": [
        {
          "fieldPath": "deleted",
          "order": "ASCENDING"
        },
        {
          "fieldPath": "location",
          "order": "ASCENDING"
        },
        {
          "fieldPath": "startDate",
          "order": "ASCENDING"
        }
      ]
    },
    {
      "collectionGroup": "provider-bulletins",
      "queryScope": "COLLECTION",
      "fields": [
        {
          "fieldPath": "deleted",
          "order": "ASCENDING"
        },
        {
          "fieldPath": "location",
          "order": "ASCENDING"
        },
        {
          "fieldPath": "updatedAt",
          "order": "ASCENDING"
        }
      ]
    },
    {
      "collectionGroup": "supplier-offers",
      "queryScope": "COLLECTION",
      "fields": [
        {
          "fieldPath": "d.deleted",
          "order": "ASCENDING"
        },
        {
          "fieldPath": "d.startDate",
          "order": "ASCENDING"
        }
      ]
    },
    {
      "collectionGroup": "supplier-offers",
      "queryScope": "COLLECTION",
      "fields": [
        {
          "fieldPath": "d.orgName",
          "order": "ASCENDING"
        },
        {
          "fieldPath": "d.startDate",
          "order": "ASCENDING"
        }
      ]
    },
    {
      "collectionGroup": "supplier-offers",
      "queryScope": "COLLECTION",
      "fields": [
        {
          "fieldPath": "d.startDate",
          "order": "DESCENDING"
        },
        {
          "fieldPath": "updatedAt",
          "order": "DESCENDING"
        }
      ]
    }
  ],
  "fieldOverrides": [
    {
      "collectionGroup": "supplier-offers",
      "fieldPath": "d.startDate",
      "indexes": [
        {
          "order": "ASCENDING",
          "queryScope": "COLLECTION"
        },
        {
          "order": "DESCENDING",
          "queryScope": "COLLECTION"
        }
      ]
    },
    {
      "collectionGroup": "supplier-offers",
      "fieldPath": "updatedAt",
      "indexes": [
        {
          "order": "ASCENDING",
          "queryScope": "COLLECTION"
        },
        {
          "order": "DESCENDING",
          "queryScope": "COLLECTION"
        }
      ]
    }
  ]
}
